Who is into Green Infrastructure
…
#did I use the 5 year acs table? double check? yes

as_tibble(edu_data) %>% select(-geometry)

## # A tibble: 2,607 × 5
##    GEOID       NAME                                      variable estimate   moe
##    <chr>       <chr>                                     <chr>       <dbl> <dbl>
##  1 36029014604 Census Tract 146.04, Erie County, New Yo… all          5480   174
##  2 36029014604 Census Tract 146.04, Erie County, New Yo… hs            674   159
##  3 36029014604 Census Tract 146.04, Erie County, New Yo… ged            28    33
##  4 36029014604 Census Tract 146.04, Erie County, New Yo… someco1       308   139
##  5 36029014604 Census Tract 146.04, Erie County, New Yo… someco2       424   193
##  6 36029014604 Census Tract 146.04, Erie County, New Yo… as            412   156
##  7 36029014604 Census Tract 146.04, Erie County, New Yo… bac          1586   251
##  8 36029014604 Census Tract 146.04, Erie County, New Yo… mas          1134   220
##  9 36029014604 Census Tract 146.04, Erie County, New Yo… prof          497   172
## 10 36029014604 Census Tract 146.04, Erie County, New Yo… doc           268   114
## # … with 2,597 more rows
…
